// Jest Snapshot v1, https://goo.gl/fbAQLP
/* eslint-disable quotes */
/* eslint-disable semi */
exports[`renders 1`] = `
<DocumentFragment>
  <form>
    <div
      class="field"
    >
      <label
        class="label is-large"
        for="input-username"
      >
        Username
      </label>
      <input
        class="input is-large"
        id="input-username"
        name="username"
        placeholder="Enter a username"
        required=""
        type="text"
        value=""
      />
    </div>
    <div
      class="field"
    >
      <label
        class="label is-large"
        for="input-email"
      >
        Email
      </label>
      <input
        class="input is-large"
        id="input-email"
        name="email"
        placeholder="Enter an email address"
        required=""
        type="email"
        value=""
      />
    </div>
    <input
      class="button is-primary is-large is-fullwidth"
      type="submit"
      value="Submit"
    />
  </form>
</DocumentFragment>
`;
